A,A,A,A,A,A,A,A,A,A,A,A,A,A,A,A,A,B,A,A,A,A,A,A,A,A,A,A,A,A,A,A,A
A,A,A,A,A,A,A,A,A,A,A,A,A,A,A,A,B,A,A,A,A,A,A,A,A,A,A,A,A,A,A,A,A
A,A,A,A,A,A,A,A,A,A,A,A,A,A,A,B,B,A,A,A,C,A,A,A,A,A,A,A,A,A,A,A,A
A,A,A,A,A,A,A,A,A,A,A,A,A,D,A,B,B,B,A,A,D,A,A,A,A,A,A,A,A,A,A,A,A
A,A,A,A,A,A,A,A,A,A,A,A,A,D,D,A,B,B,B,A,A,A,A,A,A,A,A,A,A,A,A,A,A
A,A,A,A,A,A,A,A,A,A,A,A,A,A,A,B,C,C,B,B,A,A,A,A,A,A,A,A,A,A,A,A,A
A,A,A,A,A,A,A,A,A,A,A,A,A,A,B,B,C,D,C,B,B,A,A,A,A,A,A,A,A,A,A,A,A
A,A,A,A,A,A,A,A,A,A,A,A,A,A,B,C,D,D,D,C,B,A,A,A,A,A,A,A,A,A,A,A,A
A,A,A,A,A,A,A,A,A,A,A,A,B,B,C,D,D,J,D,C,B,A,A,A,A,A,A,A,A,A,A,A,A
A,A,A,A,A,A,A,A,A,A,A,A,B,C,D,D,J,J,J,D,C,B,A,A,A,A,A,A,A,A,A,A,A
A,A,A,A,A,A,A,A,A,A,A,A,B,D,D,J,J,J,J,D,C,B,A,A,A,A,A,A,A,A,A,A,A
A,A,A,A,A,A,A,A,A,A,A,A,B,D,J,J,J,J,J,J,C,B,A,A,A,A,A,A,A,A,A,A,A
A,A,A,A,A,A,A,A,A,A,A,A,A,B,B,J,J,J,J,J,B,A,A,A,A,A,A,A,A,A,A,A,A
A,A,A,A,A,A,A,A,A,A,A,I,H,H,H,B,B,B,B,B,H,H,I,A,A,A,A,A,A,A,A,A,A
A,A,A,A,A,A,A,A,A,A,A,A,I,H,H,H,H,H,H,H,H,I,A,A,A,A,A,A,A,A,A,A,A
A,A,A,A,A,A,A,A,A,A,A,A,A,I,H,H,H,H,H,H,I,A,A,A,A,A,A,A,A,A,A,A,A
A,A,A,A,A,A,A,A,A,A,A,A,A,A,I,H,H,H,H,I,A,A,A,A,A,A,A,A,A,A,A,A,A
A,A,A,A,A,A,A,A,A,A,A,A,A,A,A,I,H,I,I,A,A,A,A,A,A,A,A,A,A,A,A,A,A
A,A,A,A,A,A,F,F,F,F,A,A,A,A,E,E,H,I,E,A,A,A,A,B,B,B,B,A,A,A,A,A,A
A,A,A,A,A,F,A,A,A,A,F,A,A,E,A,A,H,I,A,E,A,A,B,A,A,A,A,B,A,A,A,A,A
A,A,A,A,F,A,A,A,A,A,A,F,E,A,A,A,H,I,A,A,E,B,A,A,A,A,A,A,B,A,A,A,A
A,A,A,A,F,A,A,A,A,A,A,F,E,A,A,A,H,I,A,A,E,B,A,A,A,A,A,A,B,A,A,A,A
A,A,A,A,F,A,A,A,A,A,D,D,D,D,A,A,H,I,A,G,E,G,G,A,A,A,A,A,B,A,A,A,A
A,A,A,A,F,A,A,A,A,D,A,F,E,A,D,A,H,I,G,A,E,B,A,G,A,A,A,A,B,A,A,A,A
A,A,A,A,A,F,A,A,D,A,F,A,A,E,A,D,H,G,A,E,A,A,B,A,G,A,A,B,A,A,A,A,A
A,A,A,A,A,A,F,F,D,F,A,A,A,A,E,E,E,E,E,A,A,A,A,B,B,B,B,A,A,A,A,A,A
A,A,A,A,A,A,A,A,D,A,A,A,A,A,A,D,H,G,A,A,A,A,A,A,G,A,A,A,A,A,A,A,A
A,A,A,A,A,A,A,A,D,A,A,A,A,A,A,D,H,G,A,A,A,A,A,A,G,A,A,A,A,A,A,A,A
A,A,A,A,A,A,A,A,A,D,A,A,A,A,D,A,H,I,G,A,A,A,A,G,A,A,A,A,A,A,A,A,A
A,A,A,A,A,A,A,A,A,A,D,D,D,D,A,A,H,I,A,G,G,G,G,A,A,A,A,A,A,A,A,A,A
A,A,A,A,A,A,A,A,A,A,A,A,A,A,A,A,H,I,A,A,A,A,A,A,A,A,A,A,A,A,A,A,A
A,A,A,A,A,A,A,A,A,A,A,A,A,A,A,A,H,I,A,A,A,A,A,A,A,A,A,A,A,A,A,A,A
A,A,A,A,A,A,A,I,I,I,I,I,I,I,I,I,I,I,I,I,I,I,I,I,I,I,I,A,A,A,A,A,A
